…
### Data transforming

Once we have our libraries and the dataset imported, let’s have a quick
look:

``` r
print(pets)
```

    ## # A tibble: 29 × 4
    ##    Country           Dogs     Cats Population
    ##    <chr>            <dbl>    <dbl>      <dbl>
    ##  1 Austria         837000  1985000    8859000
    ##  2 Belgium        1340000  2085000   11460000
    ##  3 Bulgaria        750000   815000    7000000
    ##  4 Croatia         350000   437500    4076000
    ##  5 Cyprus           48648    60810     875899
    ##  6 Czech Republic 2205000  1150000   10650000
    ##  7 Denmark         610000   680000    5806000
    ##  8 Estonia         235000   290000    1325000
    ##  9 Finland         760000   975000    5518000
    ## 10 France         7500000 15100000   67060000
    ## # ℹ 19 more rows
…
Now, we’ve performed all the variables and transformations we need.
Let’s have a quick view to make sure everything is correct:

``` r
print(pets_2)
```

    ## # A tibble: 29 × 8
    ##    Country      Dogs    Cats Population pet_rate pet_rate_z pet_mean iso  
    ##    <fct>       <dbl>   <dbl>      <dbl>    <dbl>      <dbl> <chr>    <chr>
    ##  1 Greece     660000  605000   10720000     11.8      -1.67 below    gr   
    ##  2 Cyprus      48648   60810     875899     12.5      -1.6  below    cy   
    ##  3 Ireland    457000  326000    4904000     16.0      -1.3  below    ie   
    ##  4 Croatia    350000  437500    4076000     19.3      -1    below    hr   
    ##  5 Luxembourg  55500   69375     613894     20.3      -0.91 below    lu   
    ##  6 Denmark    610000  680000    5806000     22.2      -0.74 below    dk   
    ##  7 Bulgaria   750000  815000    7000000     22.4      -0.73 below    bg   
    ##  8 Sweden     890000 1480000   10230000     23.2      -0.66 below    se   
    ##  9 Norway     490000  783000    5328000     23.9      -0.6  below    no   
    ## 10 Slovakia   920000  550000    5450000     27.0      -0.32 below    sk   
    ## # ℹ 19 more rows
…
